{"photos":[
	{ "latitude":57.7973333, "longitude":12.0502107, "title":"Angered", "content":"Representing :)" },
	{ "latitude":57.6969943, "longitude":11.9865, "title":"Gothenburg", "content":"Swedens second largest city" }
]}